<?xml version="1.0" encoding="UTF-8"?>
<CustomTab xmlns="http://soap.sforce.com/2006/04/metadata">
    <customObject>true</customObject>
    <icon>vlocity_ins__VlocityResources/vlocity_ins__Dataraptore32_2x.png</icon>
    <motif>Custom108: TV Widescreen</motif>
</CustomTab>
